…
Loaded ds_raw:  850  records
Loaded dm:  306  subjects
Loaded study_ct:  164  terms
DS domain CT terms:  10 
Records after cleaning:  850 
OAK IDs generated
DSTERM mapped for  850  records
# A tibble: 850 × 4
   oak_id raw_source patient_number DSDECOD              
    <int> <chr>      <chr>          <chr>                
 1      1 ds_raw     701-1015       RANDOMIZED           
 2      2 ds_raw     701-1015       COMPLETED            
 3      3 ds_raw     701-1015       FINAL LAB VISIT      
 4      4 ds_raw     701-1023       RANDOMIZED           
 5      5 ds_raw     701-1023       ADVERSE EVENT        
 6      6 ds_raw     701-1023       FINAL LAB VISIT      
 7      7 ds_raw     701-1023       FINAL RETRIEVAL VISIT
 8      8 ds_raw     701-1028       RANDOMIZED           
 9      9 ds_raw     701-1028       COMPLETED            
10     10 ds_raw     701-1028       FINAL LAB VISIT      
# ℹ 840 more rows
# ℹ Use `print(n = ...)` to see more rows
…
